module github.com/bep/docuapi

go 1.12

require (
	github.com/bep/empty-hugo-module v1.0.0 // indirect
	github.com/jquery/jquery-dist v0.0.0-20200504225046-4c0e4becb826 // indirect
	github.com/olivernn/lunr.js v2.3.9+incompatible // indirect
	github.com/slatedocs/slate v2.7.1+incompatible // indirect
)
